142578 145388 375
110680 110901 261
13783 14491 258
127857 129019 331
42650 44516 270
6925 7464 257
16425 17204 266
28366 28778 228
127404 128975 331
58027 58797 273
39194 41613 306
74697 76674 325
114687 117325 349
114526 116299 349
32875 36250 324
49760 50809 265
46757 47372 314
83815 86971 320
68620 69040 237
106297 108633 323
117015 118100 305
37193 39485 306
70616 73652 325
16215 16438 222
140920 141535 282
96357 99180 328
57655 60001 304
7077 9176 252
61477 63609 330
14293 16879 271
81812 84944 320
109870 111447 310
144268 147105 357
131777 132590 331
28970 30404 272
29280 30430 272
68053 68539 312
124594 127149 331
42896 45349 314
96545 98985 297
45969 48252 314
17733 19024 261
25391 27797 308
25667 26166 233
68459 70857 312
54319 57712 322
46842 49121 314
129886 130183 344
96532 97839 297
53415 55293 322
101256 101422 279
27729 29232 259
93103 96577 328
51345 51491 309
144245 145689 326
94537 95237 328
100068 102839 341
11047 12593 263
71144 73249 325
51620 55091 340
106065 107910 354
76152 78794 351
10075 11791 268
61562 62022 317
140419 141578 326
4649 7405 262
132219 135288 344
65307 66284 268
132358 134672 331
138118 141015 344
30507 32821 285
107731 108727 279
140288 142296 326
105836 108650 354
142600 144125 326
144097 147185 357
126113 126991 331
23964 25870 264
63821 67274 299
2171 5274 238
107804 108812 279
65659 66338 268
51397 51762 234
136842 137306 331
28901 31926 285
144008 145208 326
127797 129241 331
28726 30183 272
107865 109994 310
20883 23080 269
112146 112839 323
28325 29150 228
105591 105875 248
35797 38754 306
59378 62683 335
87858 88704 333
26382 27948 308
133013 134388 313
86667 87254 333
120669 123067 336
142813 144524 326
139008 142409 344
88892 89166 315
68450 68780 312
41458 43346 288
3606 5427 238
127698 130321 344
111132 113153 323
48683 52077 309
34643 37229 324
128010 129888 331
45394 47372 314
142951 145868 326
123606 125576 318
17348 18136 279
3845 5886 236
44513 44631 239
77424 79737 338
39182 41104 306
31874 34528 311
4569 7575 262
89555 90617 315
135790 138143 331
14863 17308 271
99626 102931 341
132396 133425 331
130798 133329 331
24825 26208 264
9849 10278 242
112923 114852 305
13885 14135 258
86505 89382 333
2993 5719 238
138101 140424 344
1048 2518 209
105864 107138 354
57519 59565 273
132916 136385 344
34627 35655 324
99108 102154 341
90988 91305 315
132817 135005 331
121509 124817 336
86363 88585 333
13090 15376 276
117266 118552 336
67197 69503 312
79727 80947 320
95261 96399 297
142539 145668 375
47242 47918 314
142684 146007 326
130596 133067 331
18875 19260 261
122401 125079 331
42731 45695 314
143224 145134 326
36446 39422 306
83874 85765 320
12701 15483 276
82921 85062 320
149680 150152 370
103590 106890 354
65440 67027 268
30860 32598 285
22032 22428 269
107430 108810 279
86924 90136 333
46897 49330 314
40827 42105 288
7898 10886 260
99033 100189 341
14610 16040 271
116552 118260 336
80548 83508 320
9092 10204 260
31216 32925 285
98761 100751 341
5974 6240 262
110615 112328 323
15946 17278 266
123917 127340 331
77296 80052 338
116240 119063 336
101632 105107 341
145272 148392 357
16657 18053 279
97950 99239 328
121621 124197 336
8032 9703 260
58288 59956 304
41711 43807 288
82611 84729 320
38447 39872 275
84749 85750 302
21586 24867 282
88381 91607 333
134179 135326 344
112517 114087 292
67741 70820 312
65372 66713 268
121522 123118 336
50696 51166 278
47736 50750 296
23412 25270 282
8983 11276 268
123496 125035 318
55070 56810 322
129111 130969 344
120913 122527 336
136199 137396 331
36472 38919 306
44025 46505 314
123364 125388 331
111266 112972 323
82065 82319 289
107298 110377 310
89858 92100 333
95882 96769 297
59327 62654 335
26657 28971 259
73 1766 182
22059 25466 282
65757 68384 312
136225 139430 331
80885 83126 320
147414 148053 295
61345 62053 317
110521 113263 323
90670 92216 333
60424 63248 335
148762 151394 370
72071 74363 294
101146 102281 310
139775 140358 344
120741 122100 336
33943 34593 311
97972 99581 328
124766 124909 225
117336 118063 305
46430 47060 283
61594 63273 317
32684 35582 311
54793 57743 322
99152 101650 341
137306 140391 344
16664 17811 279
72750 75802 325
39889 43168 306
88466 89340 315
