903891 566894 525
405828 404918 405
126637 601129 470
439652 543614 470
262312 932415 525
780384 833080 468
400783 843583 525
752937 349728 509
197823 55873 383
551319 352577 470
198206 184857 360
356764 619759 470
169615 54124 383
683214 812015 504
26847 104703 351
448316 939223 525
353361 54655 443
479663 839908 525
935841 862986 476
631822 76060 509
132255 74165 354
245273 592778 470
848167 842253 419
669056 86664 509
458535 289831 449
664615 843543 525
287740 857124 525
349688 463418 449
209278 370342 443
934371 136679 525
199901 366186 443
883384 113714 525
468576 779151 509
895783 115269 525
554673 66141 470
248327 870280 525
508196 196881 449
682243 565807 509
927917 462809 525
665989 715193 504
997152 566921 525
579456 381437 470
246728 194112 443
317680 504754 449
590835 618752 447
120322 880229 525
157088 166841 370
225660 524520 470
511663 114558 449
497314 263328 449
646565 405953 509
999051 597100 525
959515 422099 525
101116 972265 525
884772 53497 525
790246 609770 509
309441 297107 371
731443 703024 504
176143 793046 509
35367 543960 470
928022 416375 525
749281 494006 509
998533 113707 525
524071 202500 470
287808 810959 509
695634 993042 525
747918 576264 509
774866 639957 504
13791 921974 525
905420 587470 525
61700 121605 354
190996 477114 449
789457 844680 525
855168 331413 525
938573 120091 525
78704 246941 443
323402 731253 509
437683 650707 509
349935 66692 443
227295 926452 525
264819 62736 443
576081 732463 509
686181 209546 509
9220 947571 525
289630 298701 358
880323 552368 525
625960 344164 470
464874 585912 470
249045 943724 525
635295 114506 509
378088 547291 470
69994 392823 443
423098 61068 449
697586 898690 525
886462 748402 525
615888 673969 509
968116 967229 321
956761 387609 525
968167 533602 525
332999 466255 449
819228 684626 504
350046 377731 423
764245 979801 525
897376 328848 525
84155 166544 383
346611 241867 441
219211 542767 470
305876 804270 509
279083 351743 441
436496 110708 449
9495 325166 443
185936 876713 525
226844 516530 470
50668 607577 470
670893 159921 509
15148 76224 340
959057 378314 525
849115 412535 525
847808 260207 525
361158 733054 509
48594 174195 383
669778 117098 509
930963 31804 525
279496 406228 441
786306 817197 468
944522 464462 525
263403 589845 470
272318 909552 525
509452 214165 449
197296 9698 383
226377 795248 509
972351 751778 525
717175 36174 509
223822 438579 449
846698 889676 445
924861 190799 525
590269 785315 509
581438 776964 509
636540 760669 504
560852 705654 509
293301 681828 509
24208 879670 525
455268 577728 470
69886 589614 470
619903 972284 525
861443 574449 525
446737 906193 525
470315 705437 509
140842 209892 383
300228 255431 407
243535 974798 525
172864 483477 449
654103 200818 509
588881 689573 509
401677 152210 443
684684 33012 509
164851 38435 383
705245 86047 509
697341 594384 509
270022 987095 525
585710 105480 470
108391 34413 354
145949 530840 470
876875 561927 525
198845 742177 509
373748 780296 509
479511 385194 449
953346 982252 458
994381 535482 525
848464 373562 525
312453 31077 443
535909 857018 525
739680 382857 509
566340 391188 470
169888 677193 509
350307 258865 441
600756 598210 372
58597 84189 351
387728 771598 509
272736 644784 509
424937 863396 525
534014 964156 525
531413 74662 470
513896 494306 470
566319 976325 525
16277 393512 443
766776 214711 509
53860 543336 470
217108 542626 470
263044 670299 509
699409 208285 509
684127 213166 509
745251 658724 504
796917 492696 509
55514 788385 509
869274 770616 525
590279 435644 470
191856 366623 443
557671 920692 525
984417 525527 525
254636 71721 443
539134 401739 470
474619 536588 470
60969 826510 509
481957 753136 509
434901 638290 509
867719 858092 388
597220 64941 470
175791 742426 509
105322 841032 525
259835 40923 443
199065 399987 443
495920 43583 449
498074 424987 444
191183 417728 449
700703 77990 509
879124 297944 525
296648 318981 384
235793 974289 525
730819 960695 525
325039 190716 443
268107 616866 470
427876 136549 449
925876 57607 525
748898 446160 509
737390 759406 424
681047 903896 525
508699 526848 470
483054 265821 449
814361 173951 509
654288 974094 525
716093 374404 509
721874 166718 509
133427 278546 443
308612 277481 389
74757 31970 340
39808 574161 470
910053 217320 525
227663 735387 509
53345 234581 443
454762 692408 509
128606 267360 443
776470 217008 509
674233 361461 509
498128 522871 470
80134 86966 320
