831232 555638 509
620355 427000 470
736835 776656 468
617595 840738 525
448438 407203 449
583345 118799 470
734291 382627 509
499619 279604 449
703263 738474 504
959634 272592 525
776504 95947 509
400483 645259 509
578927 443194 470
937028 907390 476
723910 351842 509
993157 343775 525
854592 168047 525
366871 867504 525
158199 818021 509
615248 372694 470
71366 589432 470
979108 534120 525
988694 262007 525
696302 190994 509
923180 550370 525
264696 284716 407
524303 133984 470
258668 521410 470
491434 691068 509
314351 847002 525
863668 372905 525
845656 326802 525
891125 360378 525
949483 572503 525
873033 562152 525
818803 354140 509
439400 267884 449
991347 554551 525
951615 195195 525
516224 171661 470
174624 137485 383
492662 829009 509
7196 779539 509
27915 655023 509
674228 787635 504
484831 911600 525
533222 47181 470
128994 187870 383
25520 275443 443
532273 187873 470
854710 489173 525
183330 115796 383
576843 903285 525
577368 341204 470
57167 766173 509
634362 584397 509
822017 175870 509
434922 556597 470
746786 572758 509
8931 602548 470
413968 852923 525
642992 780959 504
495948 474767 426
967412 945585 414
542382 150672 470
363143 538906 470
930392 214195 525
325794 273568 389
412161 592815 470
183481 222565 386
546990 176970 470
838295 283019 525
146495 518493 470
777937 306830 509
733570 677107 504
182511 738071 509
34014 751587 509
79224 886234 525
90646 483555 449
692214 862205 525
694998 216526 509
342183 363489 441
609130 336367 470
219862 468097 449
40372 621757 470
842472 37792 525
847101 175597 525
199538 76460 383
14329 32345 308
9020 419128 449
211502 158201 373
67147 173901 383
200493 823094 509
192162 581799 470
622640 399076 470
627015 405669 509
558183 850698 525
17182 658119 509
354560 858183 525
603407 917267 525
956203 888967 507
486392 203965 449
935557 788011 525
621255 659089 509
998089 837888 507
731923 95288 509
561831 2458 470
902364 696451 525
128495 33838 354
251380 21259 443
770743 484456 509
140400 541610 470
214557 817186 509
374259 22134 443
354947 239063 441
819604 23678 509
625696 40297 470
431886 368218 449
831389 849532 525
49987 696671 509
141564 52381 354
796346 285677 509
571860 543635 452
422217 452613 418
166002 866025 525
608151 254610 470
695005 94830 509
208802 687879 509
206136 947035 525
154345 70461 375
804008 580309 509
715356 267453 509
285100 985629 525
357535 768752 509
396000 546792 470
70171 207954 383
738979 768880 468
798329 63885 509
12183 88661 351
80459 656944 509
120526 3624 354
582604 41060 470
225484 520339 470
443294 778277 509
730872 271458 509
301721 171057 443
753455 467414 509
211169 626276 470
576766 742517 509
816317 551422 509
249018 949522 525
139194 777220 509
549109 327306 470
228622 240160 443
93482 918599 525
284882 949897 525
279429 40601 443
132226 699516 509
119129 933472 525
467350 344704 449
696720 872266 525
770663 572322 509
664179 55862 509
831947 488905 509
342687 978502 525
593251 940647 525
799843 919171 525
201498 314141 443
908882 265592 525
184477 956524 525
476268 502300 426
462610 102307 449
726759 685251 504
211901 98488 383
945260 650881 525
695347 913008 525
315389 631039 509
7222 213482 383
239289 223419 443
642172 198395 509
593659 571092 434
314671 784581 509
357517 972447 525
183 309674 443
571950 928270 525
290997 508608 449
38959 442837 449
597992 674932 509
382606 81720 443
446923 878507 525
171162 540942 470
215275 130344 383
898358 194192 525
470274 301682 449
41653 297582 443
124994 868241 525
112835 620267 470
67429 610108 470
107343 82775 354
831887 304461 509
198041 293190 443
145356 634942 509
398991 154110 443
645720 210515 509
513080 72575 470
805560 831386 450
886479 827410 525
532399 290155 470
332185 929476 525
818212 715995 468
418618 75599 449
950622 88785 525
415638 62229 449
852328 29044 525
479073 173422 449
402029 164008 443
474707 101668 449
332277 72353 443
73455 600669 470
494977 663155 509
551202 37890 470
476880 27543 449
575227 135573 470
526325 363247 470
678221 392011 509
680785 807116 504
118724 700490 509
912523 470902 525
979437 607386 525
561229 995031 525
656749 74775 509
535641 22984 470
271119 501206 449
821066 427958 509
816077 506153 509
671846 394258 509
163611 728597 509
396845 3191 443
681265 560618 509
312293 894456 525
692271 857891 525
697344 931549 525
513294 362232 470
321840 716794 509
371062 151157 443
771199 770106 349
147042 681601 509
162947 883886 525
220318 144501 386
859579 788049 525
617657 225471 470
172841 623937 470
789968 802130 468
327877 417730 449
489293 650369 509
938029 144837 525
55401 226686 386
768088 156562 509
320456 687505 509
298100 839857 525
935518 504718 525
442283 813198 509
165011 773887 509
452371 852478 525
846622 249549 525
575590 852793 525
297438 47653 443
161519 514922 470
370455 311001 441
925413 950152 507
114848 329189 443
638130 949609 525
527254 915395 525
36951 513592 470
408003 910306 525
687406 324589 509
469648 110388 449
405049 14227 443
362464 21965 443
237168 691803 509
674701 890487 525
963144 735123 525
211511 102167 383
197116 803524 509
